Math 141 – Summary Statistics
…
Computing Measures of Center by Groups

Handy dplyr function: group_by()

biketown_grouped <- group_by(biketown, PaymentPlan)
biketown_grouped

# A tibble: 9,999 × 19
# Groups:   PaymentPlan [2]
   RouteID PaymentPlan StartHub StartLatitude StartLongitude StartDate StartTime
     <dbl> <chr>       <chr>            <dbl>          <dbl> <chr>     <time>   
 1 4074085 Subscriber  SE Elli…          45.5          -123. 8/17/2017 10:44    
 2 3719219 Casual      SW Yamh…          45.5          -123. 7/22/2017 14:49    
 3 3789757 Casual      NE Holl…          45.5          -123. 7/27/2017 14:13    
 4 3576798 Subscriber  NW Couc…          45.5          -123. 7/12/2017 13:23    
 5 3459987 Casual      NE 11th…          45.5          -123. 7/3/2017  19:30    
 6 3947695 Casual      SW Mood…          45.5          -123. 8/8/2017  10:01    
 7 3549550 Casual      NW 2nd …          45.5          -123. 7/10/2017 14:13    
 8 4411957 Casual      NW Nait…          45.5          -123. 9/10/2017 07:41    
 9 4098004 Casual      NW Nait…          45.5          -123. 8/18/2017 23:35    
10 4096862 Subscriber  SW Mood…          45.5          -123. 8/18/2017 20:10    
# ℹ 9,989 more rows
# ℹ 12 more variables: EndHub <chr>, EndLatitude <dbl>, EndLongitude <dbl>,
#   EndDate <chr>, EndTime <time>, TripType <lgl>, BikeID <dbl>,
#   BikeName <chr>, Distance_Miles <dbl>, Duration <dbl>,
#   RentalAccessPath <chr>, MultipleRental <lgl>
…
