Math 141 – SLR II: Regression Assumptions
…
New model

mpg_mod <- lm(formula = mpg ~ disp, data = mtcars)

get_regression_points(mpg_mod)

# A tibble: 32 × 5
      ID   mpg  disp mpg_hat residual
   <int> <dbl> <dbl>   <dbl>    <dbl>
 1     1  21    160     23.0   -2.00 
 2     2  21    160     23.0   -2.00 
 3     3  22.8  108     25.1   -2.35 
 4     4  21.4  258     19.0    2.43 
 5     5  18.7  360     14.8    3.94 
 6     6  18.1  225     20.3   -2.23 
 7     7  14.3  360     14.8   -0.462
 8     8  24.4  147.    23.6    0.846
 9     9  22.8  141.    23.8   -0.997
10    10  19.2  168.    22.7   -3.49 
# ℹ 22 more rows
…
