Math 141 – Data Wrangling with dplyr
…
[1] "Lucy"    "Luna"    "Charlie" "Cooper"  "Charlie" "Luna"   

dogs_top5 <- dogs_top5 %>%
  mutate(Dog_Name = toupper(Dog_Name))

head(dogs_top5$Dog_Name)

[1] "LUCY"    "LUNA"    "CHARLIE" "COOPER"  "CHARLIE" "LUNA"   

select(): Extract variables

dogs %>%
  select(Dog_Name, Dog_Breed)

# A tibble: 1,581 × 2
   Dog_Name Dog_Breed           
   <chr>    <chr>               
 1 Thor     Boxer               
 2 Lucy     Poodle              
 3 Ruby     Collie              
 4 Georgie  Lhasa Apso          
 5 Candy    Beagle              
 6 kylo-roo chihuahua yorkie mix
 7 Sandy    Cocker Spaniel      
 8 Willy    Labraddoodle        
 9 yoshi    plotthound pit mix  
10 Colby    Cocker Spaniel      
# ℹ 1,571 more rows

Motivation for filter()

count(dogs, Dog_Name, sort = TRUE)

# A tibble: 1,125 × 2
   Dog_Name     n
   <chr>    <int>
 1 Charlie     14
 2 Luna        14
 3 Penny       12
 4 Lucy        11
 5 Rosie       10
 6 Milo         9
 7 Pepper       9
 8 Cooper       8
 9 Teddy        8
10 Bella        7
# ℹ 1,115 more rows
…
BLS_URBN: 1 = urban, 2 = rural

HIGH_EDU: Highest education in the household. 00 = Never attended, 10 = Grades 1-8, 11 = Grades 9-12, no degree, 12 = High school graduate, 13 = Some college, no degree, 14 = Associates degree, 15 = Bachelor’s degree, 16 = Masters, Professional/doctorate degree

TOTEXPCQ = Total household expenditures for the current quarter

IRAX = Total in retirement funds

Wrangling CE Data

ce <- ce %>%
  mutate(YEARLY_EXP = TOTEXPCQ*4)
ce

# A tibble: 6,301 × 8
   NEWID    PRINEARN FINCBTAX BLS_URBN HIGH_EDU TOTEXPCQ    IRAX YEARLY_EXP
   <chr>    <chr>       <dbl>    <dbl> <chr>       <dbl>   <dbl>      <dbl>
 1 03324174 01         116920        1 16              0 1000000          0
 2 03324204 01            200        1 15              0   10000          0
 3 03324214 01         117000        1 16              0       0          0
 4 03324244 01              0        1 15              0      NA          0
 5 03324274 02           2000        1 14              0      NA          0
 6 03324284 01            942        1 11              0       0          0
 7 03324294 01              0        1 10              0       0          0
 8 03324304 01          91000        1 15              0   15000          0
 9 03324324 02          95000        2 15              0      NA          0
10 03324334 01          40037        1 14              0  477000          0
# ℹ 6,291 more rows

Logical Operators

ce_sub <- ce %>%
  filter(YEARLY_EXP > 0, BLS_URBN == 1, HIGH_EDU != "00")
ce_sub

# A tibble: 3,950 × 8
   NEWID    PRINEARN FINCBTAX BLS_URBN HIGH_EDU TOTEXPCQ   IRAX YEARLY_EXP
   <chr>    <chr>       <dbl>    <dbl> <chr>       <dbl>  <dbl>      <dbl>
 1 03335204 01          37000        1 14          2492.      0      9968.
 2 03335214 01         103000        1 16          6128.     NA     24513.
 3 03335224 01          14686        1 13          1072.     NA      4287.
 4 03335244 02          33396        1 12          1630       0      6520 
 5 03335264 01              0        1 13          3213.     NA     12853.
 6 03335274 01              0        1 15          4674.      0     18694.
 7 03335294 01         745136        1 16          8693. 280000     34773.
 8 03335304 01          36000        1 16          3733.     NA     14933.
 9 03335314 02          45000        1 15          3627.   3000     14509 
10 03335334 01          20862        1 13           802.      0      3209.
# ℹ 3,940 more rows

Logical Operators

ce_sub <- ce %>%
  filter(YEARLY_EXP > 0, (BLS_URBN == 1 | HIGH_EDU != "00"))
ce_sub

# A tibble: 4,178 × 8
   NEWID    PRINEARN FINCBTAX BLS_URBN HIGH_EDU TOTEXPCQ   IRAX YEARLY_EXP
   <chr>    <chr>       <dbl>    <dbl> <chr>       <dbl>  <dbl>      <dbl>
 1 03335204 01          37000        1 14          2492.      0      9968.
 2 03335214 01         103000        1 16          6128.     NA     24513.
 3 03335224 01          14686        1 13          1072.     NA      4287.
 4 03335244 02          33396        1 12          1630       0      6520 
 5 03335264 01              0        1 13          3213.     NA     12853.
 6 03335274 01              0        1 15          4674.      0     18694.
 7 03335294 01         745136        1 16          8693. 280000     34773.
 8 03335304 01          36000        1 16          3733.     NA     14933.
 9 03335314 02          45000        1 15          3627.   3000     14509 
10 03335334 01          20862        1 13           802.      0      3209.
# ℹ 4,168 more rows
…
Variable Names

Sometimes datasets come with terrible variable names.

ce <- ce %>%
  rename(INCOME = FINCBTAX)
ce

# A tibble: 6,301 × 9
   NEWID PRINEARN INCOME BLS_URBN HIGH_EDU TOTEXPCQ    IRAX YEARLY_EXP HIGH_EDU2
   <chr> <chr>     <dbl> <chr>       <dbl>    <dbl>   <dbl>      <dbl> <chr>    
 1 0332… 01       116920 Urban          16        0 1000000          0 College …
 2 0332… 01          200 Urban          15        0   10000          0 College …
 3 0332… 01       117000 Urban          16        0       0          0 College …
 4 0332… 01            0 Urban          15        0      NA          0 College …
 5 0332… 02         2000 Urban          14        0      NA          0 College …
 6 0332… 01          942 Urban          11        0       0          0 Less tha…
 7 0332… 01            0 Urban          10        0       0          0 Less tha…
 8 0332… 01        91000 Urban          15        0   15000          0 College …
 9 0332… 02        95000 Rural          15        0      NA          0 College …
10 0332… 01        40037 Urban          14        0  477000          0 College …
# ℹ 6,291 more rows
…
