FOR 128 – Reshaping data with tidyr, part 2
…
Each row of the data correspond to a single observation, and

Each column of the data correspond to a variable.

Tidying data with tidyr

Consider the face dataset from IFDAR:

library(tidyverse)
face <- read_csv("../labs/datasets/FACE/FACE_aspen_core_growth.csv") %>%
  select(Rep, Treat, Clone, ID = `ID #`,
        contains(as.character(2001:2005)) & contains("Height"))
face

# A tibble: 1,991 × 9
     Rep Treat Clone    ID `2001_Height` `2002_Height` `2003_Height`
   <dbl> <dbl> <dbl> <dbl>         <dbl>         <dbl>         <dbl>
 1     1     1     8    45            NA            NA            NA
 2     1     1   216    44           547           622           715
 3     1     1     8    43           273           275           305
 4     1     1   216    42           526           619           720
 5     1     1   216    54           328           341           364
 6     1     1   271    55           543           590           634
 7     1     1   271    56           450           502           587
 8     1     1     8    57           217           227           256
 9     1     1   259    58           158           155            NA
10     1     1   271    59           230           241           260
# ℹ 1,981 more rows
# ℹ 2 more variables: `2004_Height` <dbl>, `2005_Height` <dbl>
…
Why the long face?

face_long <- face %>%
  pivot_longer(
    cols = contains("Height"),
    names_to = "Year_Type",
    values_to = "Height_cm")

A cleaner way to select these columns is to use dplyr’s contains() function.

Why the long face?

face_long

# A tibble: 9,955 × 6
     Rep Treat Clone    ID Year_Type   Height_cm
   <dbl> <dbl> <dbl> <dbl> <chr>           <dbl>
 1     1     1     8    45 2001_Height        NA
 2     1     1     8    45 2002_Height        NA
 3     1     1     8    45 2003_Height        NA
 4     1     1     8    45 2004_Height        NA
 5     1     1     8    45 2005_Height        NA
 6     1     1   216    44 2001_Height       547
 7     1     1   216    44 2002_Height       622
 8     1     1   216    44 2003_Height       715
 9     1     1   216    44 2004_Height       716
10     1     1   216    44 2005_Height       817
# ℹ 9,945 more rows
…
unite() for pasteing column values together with specified seperators,

The separate_wider_*() family: for splitting columns into multiple new columns:

separate_wider_delim(): separate by delimiter

separate_wider_position(): separate by position

separate_wider_regex(): separate by regular expression

unite(): examples

face_long

# A tibble: 9,955 × 6
     Rep Treat Clone    ID Year_Type   Height_cm
   <dbl> <dbl> <dbl> <dbl> <chr>           <dbl>
 1     1     1     8    45 2001_Height        NA
 2     1     1     8    45 2002_Height        NA
 3     1     1     8    45 2003_Height        NA
 4     1     1     8    45 2004_Height        NA
 5     1     1     8    45 2005_Height        NA
 6     1     1   216    44 2001_Height       547
 7     1     1   216    44 2002_Height       622
 8     1     1   216    44 2003_Height       715
 9     1     1   216    44 2004_Height       716
10     1     1   216    44 2005_Height       817
# ℹ 9,945 more rows

unite(): examples

face_long %>%
  unite(col = "Design", Rep, Treat, Clone, sep = "_")

# A tibble: 9,955 × 4
   Design     ID Year_Type   Height_cm
   <chr>   <dbl> <chr>           <dbl>
 1 1_1_8      45 2001_Height        NA
 2 1_1_8      45 2002_Height        NA
 3 1_1_8      45 2003_Height        NA
 4 1_1_8      45 2004_Height        NA
 5 1_1_8      45 2005_Height        NA
 6 1_1_216    44 2001_Height       547
 7 1_1_216    44 2002_Height       622
 8 1_1_216    44 2003_Height       715
 9 1_1_216    44 2004_Height       716
10 1_1_216    44 2005_Height       817
# ℹ 9,945 more rows

unite(): examples

face_long %>%
  unite(col = "Design", Rep, Treat, Clone, sep = ".")

# A tibble: 9,955 × 4
   Design     ID Year_Type   Height_cm
   <chr>   <dbl> <chr>           <dbl>
 1 1.1.8      45 2001_Height        NA
 2 1.1.8      45 2002_Height        NA
 3 1.1.8      45 2003_Height        NA
 4 1.1.8      45 2004_Height        NA
 5 1.1.8      45 2005_Height        NA
 6 1.1.216    44 2001_Height       547
 7 1.1.216    44 2002_Height       622
 8 1.1.216    44 2003_Height       715
 9 1.1.216    44 2004_Height       716
10 1.1.216    44 2005_Height       817
# ℹ 9,945 more rows

unite(): examples

face_long_abc <- face_long %>%
  unite(col = "Design", Rep, Treat, Clone, sep = "abc")
face_long_abc

# A tibble: 9,955 × 4
   Design         ID Year_Type   Height_cm
   <chr>       <dbl> <chr>           <dbl>
 1 1abc1abc8      45 2001_Height        NA
 2 1abc1abc8      45 2002_Height        NA
 3 1abc1abc8      45 2003_Height        NA
 4 1abc1abc8      45 2004_Height        NA
 5 1abc1abc8      45 2005_Height        NA
 6 1abc1abc216    44 2001_Height       547
 7 1abc1abc216    44 2002_Height       622
 8 1abc1abc216    44 2003_Height       715
 9 1abc1abc216    44 2004_Height       716
10 1abc1abc216    44 2005_Height       817
# ℹ 9,945 more rows

separate_wider_delim() examples

face_long_abc

# A tibble: 9,955 × 4
   Design         ID Year_Type   Height_cm
   <chr>       <dbl> <chr>           <dbl>
 1 1abc1abc8      45 2001_Height        NA
 2 1abc1abc8      45 2002_Height        NA
 3 1abc1abc8      45 2003_Height        NA
 4 1abc1abc8      45 2004_Height        NA
 5 1abc1abc8      45 2005_Height        NA
 6 1abc1abc216    44 2001_Height       547
 7 1abc1abc216    44 2002_Height       622
 8 1abc1abc216    44 2003_Height       715
 9 1abc1abc216    44 2004_Height       716
10 1abc1abc216    44 2005_Height       817
# ℹ 9,945 more rows

separate_wider_delim() examples

face_long_abc %>%
  separate_wider_delim(cols = "Design", 
                       delim = "abc",
                       names = c("Rep", "Treat", "Clone"))

# A tibble: 9,955 × 6
   Rep   Treat Clone    ID Year_Type   Height_cm
   <chr> <chr> <chr> <dbl> <chr>           <dbl>
 1 1     1     8        45 2001_Height        NA
 2 1     1     8        45 2002_Height        NA
 3 1     1     8        45 2003_Height        NA
 4 1     1     8        45 2004_Height        NA
 5 1     1     8        45 2005_Height        NA
 6 1     1     216      44 2001_Height       547
 7 1     1     216      44 2002_Height       622
 8 1     1     216      44 2003_Height       715
 9 1     1     216      44 2004_Height       716
10 1     1     216      44 2005_Height       817
# ℹ 9,945 more rows

separate_wider_delim() examples

face_long

# A tibble: 9,955 × 6
     Rep Treat Clone    ID Year_Type   Height_cm
   <dbl> <dbl> <dbl> <dbl> <chr>           <dbl>
 1     1     1     8    45 2001_Height        NA
 2     1     1     8    45 2002_Height        NA
 3     1     1     8    45 2003_Height        NA
 4     1     1     8    45 2004_Height        NA
 5     1     1     8    45 2005_Height        NA
 6     1     1   216    44 2001_Height       547
 7     1     1   216    44 2002_Height       622
 8     1     1   216    44 2003_Height       715
 9     1     1   216    44 2004_Height       716
10     1     1   216    44 2005_Height       817
# ℹ 9,945 more rows

face_long %>%
  separate_wider_delim(cols = "Year_Type", 
                       delim = "_",
                       names = c("Year", NA))

# A tibble: 9,955 × 6
     Rep Treat Clone    ID Year  Height_cm
   <dbl> <dbl> <dbl> <dbl> <chr>     <dbl>
 1     1     1     8    45 2001         NA
 2     1     1     8    45 2002         NA
 3     1     1     8    45 2003         NA
 4     1     1     8    45 2004         NA
 5     1     1     8    45 2005         NA
 6     1     1   216    44 2001        547
 7     1     1   216    44 2002        622
 8     1     1   216    44 2003        715
 9     1     1   216    44 2004        716
10     1     1   216    44 2005        817
# ℹ 9,945 more rows
…
